{
  "project_info": {
    "project_number": "541878549088",
    "project_id": "glcc-app",
    "storage_bucket": "glcc-app.appspot.com"
  },
  "client": [
    {
      "client_info": {
        "mobilesdk_app_id": "1:541878549088:android:5be564a5b7b23ea9e2e105",
        "android_client_info": {
          "package_name": "com.goldgainer.admin"
        }
      },
      "oauth_client": [
        {
          "client_id": "541878549088-e5oi6q9hqet4r9tl90hlpns7f2n75vhu.apps.googleusercontent.com",
          "client_type": 3
        }
      ],
      "api_key": [
        {
          "current_key": "AIzaSyAJKd0pTTbCRJOaeVpiLDbJA0FML2FBWrA"
        }
      ],
      "services": {
        "appinvite_service": {
          "other_platform_oauth_client": [
            {
              "client_id": "541878549088-e5oi6q9hqet4r9tl90hlpns7f2n75vhu.apps.googleusercontent.com",
              "client_type": 3
            }
          ]
        }
      }
    },
    {
      "client_info": {
        "mobilesdk_app_id": "1:541878549088:android:6b335d3fe3a16eaae2e105",
        "android_client_info": {
          "package_name": "com.goldgainer.glcc"
        }
      },
      "oauth_client": [
        {
          "client_id": "541878549088-3o2r9mjokkeuevbqf041bkbnl14pp67h.apps.googleusercontent.com",
          "client_type": 1,
          "android_info": {
            "package_name": "com.goldgainer.glcc",
            "certificate_hash": "d28dae0a245bb8a97a445c276562f32c9bd5e0f8"
          }
        },
        {
          "client_id": "541878549088-e5oi6q9hqet4r9tl90hlpns7f2n75vhu.apps.googleusercontent.com",
          "client_type": 3
        }
      ],
      "api_key": [
        {
          "current_key": "AIzaSyAJKd0pTTbCRJOaeVpiLDbJA0FML2FBWrA"
        }
      ],
      "services": {
        "appinvite_service": {
          "other_platform_oauth_client": [
            {
              "client_id": "541878549088-e5oi6q9hqet4r9tl90hlpns7f2n75vhu.apps.googleusercontent.com",
              "client_type": 3
            }
          ]
        }
      }
    },
    {
      "client_info": {
        "mobilesdk_app_id": "1:541878549088:android:bde84df817067106e2e105",
        "android_client_info": {
          "package_name": "com.goldgainer.glcc.app"
        }
      },
      "oauth_client": [
        {
          "client_id": "541878549088-e5oi6q9hqet4r9tl90hlpns7f2n75vhu.apps.googleusercontent.com",
          "client_type": 3
        }
      ],
      "api_key": [
        {
          "current_key": "AIzaSyAJKd0pTTbCRJOaeVpiLDbJA0FML2FBWrA"
        }
      ],
      "services": {
        "appinvite_service": {
          "other_platform_oauth_client": [
            {
              "client_id": "541878549088-e5oi6q9hqet4r9tl90hlpns7f2n75vhu.apps.googleusercontent.com",
              "client_type": 3
            }
          ]
        }
      }
    }
  ],
  "configuration_version": "1"
}